{
    "nsfw": [
        "/@andgon99/telegram-andgon99-dianaventas-bichotaclan",
        "/@andgon99/quieres-ver-mas-do-you-want-to-see-more",
        "/@andgon99/do-you-like-a-venezuelan-milf",
        "/@andgon99/would-you-like-to-see-more",
        "/@lucylin/22-days-to-23-part-4-of-6-the-canary-how-tekraze-convinced-me-with-a-raunchy-cyber-sex-encounter-nsfw-explicit-chat-in-the-first",
        "/@lucylin/23-days-to-23-part-3-of-6-parrots-and-canaries",
        "/@lucylin/23-days-to-23-part-2-of-6-the-final-countdown",
        "/@lucylin/23-days-to-23-part-1-of-6",
        "/@lucylin/a-reply-to-practicalthought-wtf-you-trying-straw-man-esque-arguments-with-me-where-the-fuck-has-your-brain-gone",
        "/@lucylin/baah-baah-butt-hurt-sheep-have-you-any-personality-no-sir-no-sir-just-lots-of-mendacity-laughing-at-idiots",
        "/@lucylin/illustrating-the-changing-cultural-zeitgeists-new-beginnings",
        "/@lucylin/before-part-6-thanks-to-bestkizito-and-megadrive-it-illustrates-the-inherent-weaknesses-of-blurt-thanks",
        "/@lucylin/my-reply-to-little-bestkitizto-don-t-mock-him-he-s-far-too-fragile-a-blurt-witness-for-that-evil-let-s-discuss",
        "/@phusionphil/rh9aib",
        "/@petrapurple/rh2c81",
        "/@lucylin/explaining-perception-and-lack-of-self-awareness-lets-use-outofthematrix-and-his-wife-girlfriend",
        "/@drlobes/what-s-stopping-me-buying-more-blurt",
        "/@lucylin/the-problem-with-blurt-too-many-gays-and-not-enough-tits",
        "/@logiczombie/ria9of"
    ]
}
